Real-world R for Actuaries
…
Show code

claim_transactions_tbl |> print()

# A tibble: 452,268 × 8
   country_code  year claim_id        incident_date report_date transaction_date
   <chr>        <int> <chr>           <date>        <date>      <date>          
 1 AUT           2000 AUT200001CL0001 2000-01-03    2000-01-20  2001-10-06      
 2 AUT           2000 AUT200001CL0001 2000-01-03    2000-01-20  2007-08-31      
 3 AUT           2000 AUT200001CL0002 2000-01-05    2000-01-13  2000-03-12      
 4 AUT           2000 AUT200001CL0002 2000-01-05    2000-01-13  2001-05-30      
 5 AUT           2000 AUT200001CL0002 2000-01-05    2000-01-13  2005-04-18      
 6 AUT           2000 AUT200001CL0003 2000-01-06    2000-01-15  2001-02-27      
 7 AUT           2000 AUT200001CL0003 2000-01-06    2000-01-15  2001-08-01      
 8 AUT           2000 AUT200001CL0003 2000-01-06    2000-01-15  2001-10-09      
 9 AUT           2000 AUT200001CL0003 2000-01-06    2000-01-15  2002-01-24      
10 AUT           2000 AUT200001CL0003 2000-01-06    2000-01-15  2002-05-09      
# ℹ 452,258 more rows
# ℹ 2 more variables: claim_type <chr>, amount <dbl>
…
Show code

claim_incrementals_tbl |> print()

# A tibble: 452,268 × 11
   country_code  year claim_id        incident_date report_date transaction_date
   <chr>        <int> <chr>           <date>        <date>      <date>          
 1 AUT           2000 AUT200001CL0001 2000-01-03    2000-01-20  2001-10-06      
 2 AUT           2000 AUT200001CL0001 2000-01-03    2000-01-20  2007-08-31      
 3 AUT           2000 AUT200001CL0002 2000-01-05    2000-01-13  2000-03-12      
 4 AUT           2000 AUT200001CL0002 2000-01-05    2000-01-13  2001-05-30      
 5 AUT           2000 AUT200001CL0002 2000-01-05    2000-01-13  2005-04-18      
 6 AUT           2000 AUT200001CL0003 2000-01-06    2000-01-15  2001-02-27      
 7 AUT           2000 AUT200001CL0003 2000-01-06    2000-01-15  2001-08-01      
 8 AUT           2000 AUT200001CL0003 2000-01-06    2000-01-15  2001-10-09      
 9 AUT           2000 AUT200001CL0003 2000-01-06    2000-01-15  2002-01-24      
10 AUT           2000 AUT200001CL0003 2000-01-06    2000-01-15  2002-05-09      
# ℹ 452,258 more rows
# ℹ 5 more variables: claim_type <chr>, amount <dbl>, incremental <dbl>,
#   dev_days <dbl>, dev_year <dbl>
…
data_dev_tbl |> glimpse()

Rows: 3,362
Columns: 5
$ country_code <chr> "AUT", "AUT", "AUT", "AUT", "AUT", "AUT", "AUT", "AUT", "…
$ year         <int> 2000, 2000, 2000, 2000, 2000, 2000, 2000, 2000, 2000, 200…
$ claim_type   <chr> "BI", "BI", "BI", "BI", "BI", "BI", "BI", "BI", "BI", "BI…
$ dev_year     <dbl> 1, 2, 3, 4, 5, 6, 7, 8, 9, 10, 1, 2, 3, 4, 5, 6, 7, 8, 9,…
$ total_incr   <dbl> 2880.04, 60326.82, 59312.32, 6811.17, 10027.10, 134.31, 6…

Show code

data_dev_tbl |> print()

# A tibble: 3,362 × 5
   country_code  year claim_type dev_year total_incr
   <chr>        <int> <chr>         <dbl>      <dbl>
 1 AUT           2000 BI                1      2880.
 2 AUT           2000 BI                2     60327.
 3 AUT           2000 BI                3     59312.
 4 AUT           2000 BI                4      6811.
 5 AUT           2000 BI                5     10027.
 6 AUT           2000 BI                6       134.
 7 AUT           2000 BI                7        69 
 8 AUT           2000 BI                8       641.
 9 AUT           2000 BI                9      1376.
10 AUT           2000 BI               10      4778.
# ℹ 3,352 more rows
…
claim_dev_vals_tbl |> glimpse()

Rows: 5,093
Columns: 5
$ country_code <chr> "AUT", "AUT", "AUT", "AUT", "AUT", "AUT", "AUT", "AUT", "…
$ claim_type   <chr> "BI", "BI", "BI", "BI", "BI", "BI", "BI", "BI", "BI", "BI…
$ year         <int> 2000, 2000, 2000, 2000, 2000, 2000, 2000, 2000, 2000, 200…
$ dev_year     <dbl> 0, 1, 2, 3, 4, 5, 6, 7, 8, 9, 10, 0, 1, 2, 3, 4, 5, 6, 7,…
$ total_incr   <dbl> 0.00, 2880.04, 60326.82, 59312.32, 6811.17, 10027.10, 134…

Show code

claim_dev_vals_tbl |> print()

# A tibble: 5,093 × 5
   country_code claim_type  year dev_year total_incr
   <chr>        <chr>      <int>    <dbl>      <dbl>
 1 AUT          BI          2000        0         0 
 2 AUT          BI          2000        1      2880.
 3 AUT          BI          2000        2     60327.
 4 AUT          BI          2000        3     59312.
 5 AUT          BI          2000        4      6811.
 6 AUT          BI          2000        5     10027.
 7 AUT          BI          2000        6       134.
 8 AUT          BI          2000        7        69 
 9 AUT          BI          2000        8       641.
10 AUT          BI          2000        9      1376.
# ℹ 5,083 more rows
…
Rows: 5,093
Columns: 6
$ country_code <chr> "AUT", "AUT", "AUT", "AUT", "AUT", "AUT", "AUT", "AUT", "…
$ claim_type   <chr> "BI", "BI", "BI", "BI", "BI", "BI", "BI", "BI", "BI", "BI…
$ year         <int> 2000, 2000, 2000, 2000, 2000, 2000, 2000, 2000, 2000, 200…
$ dev_year     <dbl> 0, 1, 2, 3, 4, 5, 6, 7, 8, 9, 10, 0, 1, 2, 3, 4, 5, 6, 7,…
$ total_incr   <dbl> 0.00, 2880.04, 60326.82, 59312.32, 6811.17, 10027.10, 134…
$ dev_amount   <dbl> 0.00, 2880.04, 63206.86, 122519.18, 129330.35, 139357.45,…

Show code

claim_dev_long_tbl |> print()

# A tibble: 5,093 × 6
   country_code claim_type  year dev_year total_incr dev_amount
   <chr>        <chr>      <int>    <dbl>      <dbl>      <dbl>
 1 AUT          BI          2000        0         0          0 
 2 AUT          BI          2000        1      2880.      2880.
 3 AUT          BI          2000        2     60327.     63207.
 4 AUT          BI          2000        3     59312.    122519.
 5 AUT          BI          2000        4      6811.    129330.
 6 AUT          BI          2000        5     10027.    139357.
 7 AUT          BI          2000        6       134.    139492.
 8 AUT          BI          2000        7        69     139561.
 9 AUT          BI          2000        8       641.    140202.
10 AUT          BI          2000        9      1376.    141578.
# ℹ 5,083 more rows
…
Show code

claim_dev_wide_tbl |> print()

# A tibble: 463 × 14
   country_code claim_type  year   `0`    `1`    `2`    `3`    `4`    `5`    `6`
   <chr>        <chr>      <int> <dbl>  <dbl>  <dbl>  <dbl>  <dbl>  <dbl>  <dbl>
 1 AUT          BI          2000     0  2880. 6.32e4 1.23e5 1.29e5 1.39e5 1.39e5
 2 AUT          BI          2001     0 34202. 5.36e4 1.32e5 1.65e5 1.86e5 1.86e5
 3 AUT          BI          2002     0  1972. 1.19e5 1.28e5 1.31e5 1.50e5 1.49e5
 4 AUT          BI          2003     0  9353. 5.39e4 7.76e4 1.20e5 1.39e5 1.33e5
 5 AUT          BI          2004     0 17218. 5.25e4 8.64e4 1.01e5 1.50e5 1.56e5
 6 AUT          BI          2005     0  7814. 4.85e4 8.36e4 1.12e5 1.15e5 1.16e5
 7 AUT          BI          2006     0  4704. 4.46e4 6.42e4 9.01e4 9.23e4 9.38e4
 8 AUT          BI          2007     0  4961. 3.93e4 7.69e4 8.27e4 9.10e4 9.38e4
 9 AUT          BI          2008     0  7085. 3.81e4 8.96e4 1.37e5 1.52e5 1.59e5
10 AUT          BI          2009     0  4892. 5.25e4 6.88e4 1.06e5 1.23e5 1.25e5
# ℹ 453 more rows
# ℹ 4 more variables: `7` <dbl>, `8` <dbl>, `9` <dbl>, `10` <dbl>
…
